theblock • theblock
…
auction_results: contains the results of the auctions,
including reserve, sale price, total profit, and auction rank.

We can get the number of room wins by looking in the
room_results dataset as follows:

room_wins <- room_results |>
  filter(judge == "Total") |>
  group_by(season, week, area) |>
  reframe(winning_score = max(score), winning_team = couple[score == winning_score]) |>
  group_by(season) |>
  count(winning_team)

room_wins
#> # A tibble: 70 × 3
#> # Groups:   season [15]
#>    season winning_team       n
#>     <int> <chr>          <int>
#>  1      5 brad_lara          2
#>  2      5 dale_sophie        3
#>  3      5 dan_dani           3
#>  4      5 mike_andrew        2
#>  5      6 dani_dan           1
#>  6      6 josh_jenna         3
#>  7      6 mark_duncan        2
#>  8      6 phil_amity         2
#>  9      7 alisa_lysandra     5
#> 10      7 bec_george         2
#> # ℹ 60 more rows
…
